<svg xmlns="http://www.w3.org/2000/svg" width="33.029" height="31.86" viewBox="0 0 33.029 31.86">
  <g id="Group_349" data-name="Group 349" transform="translate(-278.714 -449.114)">
    <path id="Path_261" data-name="Path 261" d="M311.67,469.288l-4.728-12.221a1.111,1.111,0,0,0-1.037-.7h-.94l-5.583-5.525H311.16a.576.576,0,0,0,.58-.573v-.577a.576.576,0,0,0-.58-.573H279.294a.576.576,0,0,0-.58.573v.577a.576.576,0,0,0,.58.573H296.92l5.579,5.525H279.828a1.1,1.1,0,0,0-1.11,1.1v.357a1.1,1.1,0,0,0,1.11,1.1h6.2v8.261h-6.2a1.107,1.107,0,0,0-1.11,1.1v6.232a1.1,1.1,0,0,0,1.11,1.1h30.8a1.1,1.1,0,0,0,1.11-1.1v-4.829A1.086,1.086,0,0,0,311.67,469.288Zm-14.808-2.111h-9.091v-8.261h9.091Zm8.13,0h-6.385v-8.261h3.8a1.114,1.114,0,0,1,1.025.674l2.587,6.062A1.1,1.1,0,0,1,304.992,467.177Z" transform="translate(0 0)" fill="#296b77"/>
    <path id="Rectangle_1131" data-name="Rectangle 1131" d="M.188,0H32.836a.19.19,0,0,1,.19.19V1.536a.188.188,0,0,1-.188.188H.19A.19.19,0,0,1,0,1.534V.188A.188.188,0,0,1,.188,0Z" transform="translate(278.715 479.251)" fill="#296b77"/>
    <path id="Path_262" data-name="Path 262" d="M289.273,457.955H281.4a4.312,4.312,0,0,0,7.877,0Z" transform="translate(5.5 18.129)" fill="#296b77"/>
    <path id="Path_263" data-name="Path 263" d="M292.261,457.955h-7.877a4.312,4.312,0,0,0,7.877,0Z" transform="translate(11.627 18.129)" fill="#296b77"/>
  </g>
</svg>
